class line 3 cols 1-5 is class
Animal line 3 cols 7-12 is Identifier
{ line 3 cols 14-14 is CurlyBracketsLeft
int line 4 cols 3-5 is int
height line 4 cols 7-12 is Identifier
; line 4 cols 13-13 is DotComma
double line 5 cols 3-8 is double
weight line 5 cols 10-15 is Identifier
; line 5 cols 16-16 is DotComma
void line 6 cols 4-7 is void
Eat line 6 cols 9-11 is Identifier
( line 6 cols 12-12 is ParenthesesLeft
) line 6 cols 13-13 is ParenthesesRight
{ line 6 cols 15-15 is CurlyBracketsLeft
weight line 6 cols 17-22 is Identifier
= line 6 cols 24-24 is Assign
weight line 6 cols 26-31 is Identifier
* line 6 cols 33-33 is Times
2.0 line 6 cols 35-37 is DoubleNumber (value = 2)
; line 6 cols 38-38 is DotComma
} line 6 cols 39-39 is CurlyBracketsRight
} line 7 cols 1-1 is CurlyBracketsRight
class line 9 cols 1-5 is class
Cow line 9 cols 7-9 is Identifier
extends line 9 cols 11-17 is extends
Animal line 9 cols 19-24 is Identifier
{ line 9 cols 26-26 is CurlyBracketsLeft
string line 10 cols 3-8 is string
name line 10 cols 10-13 is Identifier
; line 10 cols 14-14 is DotComma
void line 11 cols 3-6 is void
Moo line 11 cols 8-10 is Identifier
( line 11 cols 11-11 is ParenthesesLeft
) line 11 cols 12-12 is ParenthesesRight
{ line 11 cols 14-14 is CurlyBracketsLeft
} line 11 cols 16-16 is CurlyBracketsRight
} line 12 cols 1-1 is CurlyBracketsRight
void line 14 cols 1-4 is void
main line 14 cols 6-9 is Identifier
( line 14 cols 10-10 is ParenthesesLeft
) line 14 cols 11-11 is ParenthesesRight
{ line 14 cols 13-13 is CurlyBracketsLeft
class line 15 cols 3-7 is class
Cow line 15 cols 9-11 is Identifier
betsy line 15 cols 13-17 is Identifier
; line 15 cols 18-18 is DotComma
betsy line 16 cols 3-7 is Identifier
= line 16 cols 9-9 is Assign
new line 16 cols 11-13 is new
Cow line 16 cols 15-17 is Identifier
; line 16 cols 18-18 is DotComma
betsy line 17 cols 3-7 is Identifier
. line 17 cols 8-8 is AccessOperator
height line 17 cols 9-14 is Identifier
= line 17 cols 16-16 is Assign
0xa2 line 17 cols 18-21 is IntegerNumber (value = 162)
; line 17 cols 22-22 is DotComma
betsy line 18 cols 3-7 is Identifier
. line 18 cols 8-8 is AccessOperator
weight line 18 cols 9-14 is Identifier
= line 18 cols 16-16 is Assign
1.456 line 18 cols 18-22 is DoubleNumber (value = 1.456)
; line 18 cols 23-23 is DotComma
besty line 19 cols 3-7 is Identifier
. line 19 cols 8-8 is AccessOperator
name line 19 cols 9-12 is Identifier
= line 19 cols 14-14 is Assign
"Betsy" line 19 cols 16-22 is StringLiteral (value = "Betsy")
; line 19 cols 23-23 is DotComma
betsy line 20 cols 3-7 is Identifier
. line 20 cols 8-8 is AccessOperator
Moo line 20 cols 9-11 is Identifier
( line 20 cols 12-12 is ParenthesesLeft
) line 20 cols 13-13 is ParenthesesRight
; line 20 cols 14-14 is DotComma
} line 21 cols 1-1 is CurlyBracketsRight
